Name,Age,Sex,Division,BodyweightKg,WeightClassKg,Squat1Kg,Squat2Kg,Squat3Kg,Squat4Kg,Best3SquatKg,Bench1Kg,Bench2Kg,Bench3Kg,Bench4Kg,Best3BenchKg,Deadlift1Kg,Deadlift2Kg,Deadlift3Kg,Deadlift4Kg,Best3DeadliftKg,TotalKg,Event,Equipment,Place
Jorgia Watson,10,F,F-11,31.9,44,,,,,,,,,,,30,35,40,,40,40,D,Raw,1
Andrea Todosychuk,28,F,F-O,54.9,56,65,75,80,,80,32.5,37.5,-42.5,,37.5,85,95,100,,100,217.5,SBD,Raw,1
Katelyn Barry,14,F,F-15,57.3,60,80,87.5,90,97.5,90,50,57.5,60,62.5,60,85,95,102.5,,102.5,252.5,SBD,Raw,2
Victoria Barry,14,F,F-15,59.3,60,80,90,95,100,95,50,57.5,60,-65,60,90,102.5,107.5,,107.5,262.5,SBD,Raw,1
Karen Ogilvie,43,F,F-40,58.6,60,82.5,85,87.5,,87.5,60,62.5,65,,65,130,135,-140,,135,287.5,SBD,Raw,1
Katie McGeachy,28,F,F-O,67,67.5,110,117.5,120,,120,60,67.5,70,,70,137.5,142.5,147.5,,147.5,337.5,SBD,Raw,1
Amanda Watson,33,F,F-O,66.4,67.5,97.5,107.5,117.5,,117.5,60,65,67.5,,67.5,120,135,-145,,135,320,SBD,Raw,2
Leyla Guliyeva,37,F,F-SM,64.6,67.5,82.5,87.5,90,,90,50,55,-57.5,,55,125,135,-147.5,,135,280,SBD,Raw,2
Rebecca Stoddart,37,F,F-SM,64.7,67.5,115,122.5,130,,130,70,72.5,-75,,72.5,145,160,175,182.5,175,377.5,SBD,Raw,1
Rachele Hicks,40,F,F-40,67.3,67.5,102.5,112.5,115,,115,-50,55,57.5,,57.5,130,135,-140,,135,307.5,SBD,Raw,1
Carlee Grant,41,F,F-40,65.1,67.5,87.5,92.5,97.5,,97.5,55,57.5,60,,60,135,140,145,,145,302.5,SBD,Raw,2
Cat Hill,42,F,F-40,65.9,67.5,75,85,92.5,,92.5,47.5,52.5,55,,55,97.5,107.5,115,,115,262.5,SBD,Raw,3
Mira Szudek,16,F,F-17,74.8,75,60,67.5,72.5,,72.5,30,-42.5,-47.5,,30,80,95,110,,110,212.5,SBD,Raw,1
April Mahovlic,24,F,F-J,70,75,102.5,107.5,-115,,107.5,57.5,62.5,-65,,62.5,110,120,-125,,120,290,SBD,Raw,1
Candice Riemersma,40,F,F-40,69.1,75,55,60,65,,65,32.5,37.5,-40,,37.5,75,82.5,90,,90,192.5,SBD,Raw,1
Kathy Brennan,63,F,F-60,74.4,75,90,95,100,,100,45,47.5,50,,50,115,120,125,,125,275,SBD,Raw,1
Jordan Keehn,27,F,F-O,79.2,82.5,125,137.5,-145,,137.5,70,80,87.5,,87.5,140,160,170,,170,395,SBD,Raw,1
Sue O'Connell,34,F,F-SM,75.4,82.5,80,85,90,,90,-42.5,45,47.5,,47.5,125,132.5,137.5,,137.5,275,SBD,Raw,1
Lianne Marquis,48,F,F-45,80.6,82.5,105,112.5,117.5,120,117.5,-50,50,52.5,,52.5,120,-130,140,,140,310,SBD,Raw,1
Ashley Proulx,23,F,F-J,87.6,90,85,92.5,95,,95,57.5,62.5,65,67.5,65,125,135,140,,140,300,SBD,Raw,1
Sheryl Malinowski,43,F,F-40,90,90,-120,-120,-120,,,-70,-70,-70,,,120,130,140,,140,,SBD,Raw,DQ
Kimberly Hempell,27,F,F-O,105.1,90+,97.5,105,110,,110,65,67.5,70,,70,120,135,145,,145,325,SBD,Raw,1
Karmen Doucette,40,F,F-40,106.8,90+,110,115,122.5,,122.5,47.5,50,55,,55,117.5,125,135,,135,312.5,SBD,Raw,1
Seth Watson,7,M,M-11,29.9,48,,,,,,,,,,,40,50,-55,,50,50,D,Raw,1
Ryan Bell,19,M,M-19,72.1,75,160,170,180,,180,102.5,107.5,-115,,107.5,182.5,192.5,-200,,192.5,480,SBD,Raw,1
Max Corcoran,22,M,M-J,74.8,75,85,102.5,112.5,,112.5,85,95,102.5,,102.5,180,190,200,,200,415,SBD,Raw,1
Derek Arsenault,33,M,M-O,72.9,75,132.5,140,147.5,,147.5,-112.5,112.5,122.5,,122.5,170,185,190,,190,460,SBD,Raw,1
Kyle Larson,39,M,M-SM,82.1,82.5,170,185,197.5,,197.5,125,130,137.5,,137.5,215,227.5,232.5,,232.5,567.5,SBD,Raw,1
Trevor Carpenter,46,M,M-45,81.9,82.5,175,187.5,-192.5,,187.5,100,110,115,,115,217.5,227.5,-235,,227.5,530,SBD,Raw,1
Kevin OShea,47,M,M-45,81.6,82.5,115,122.5,127.5,,127.5,87.5,-95,-95,,87.5,155,165,-170,,165,380,SBD,Raw,2
Damien Rattee,24,M,M-J,88.9,90,187.5,-200,207.5,,207.5,-135,-140,140,,140,200,220,235,,235,582.5,SBD,Raw,1
Tyler Little,35,M,M-SM,84.9,90,192.5,195,202.5,,202.5,110,122.5,-125,,122.5,195,205,217.5,,217.5,542.5,SBD,Raw,2
Dan Wales,37,M,M-SM,85.3,90,180,190,-200,,190,127.5,132.5,-135,,132.5,215,230,240,,240,562.5,SBD,Raw,1
Brad McKim,44,M,M-40,87.7,90,200,210,217.5,,217.5,-137.5,137.5,150,,150,200,212.5,222.5,,222.5,590,SBD,Raw,1
Robert Wiseman,44,M,M-40,83.4,90,127.5,-142.5,142.5,,142.5,80,85,90,,90,125,135,142.5,,142.5,375,SBD,Raw,2
Giles Weeden,47,M,M-45,94.9,100,135,147.5,152.5,,152.5,90,95,-97.5,,95,187.5,200,207.5,,207.5,455,SBD,Raw,2
Kyle Huard,20,M,M-J,94.6,100,152.5,172.5,177.5,,177.5,107.5,115,122.5,,122.5,197.5,210,-220,,210,510,SBD,Raw,1
Travis Siegmann,25,M,M-O,98.8,100,175,-182.5,182.5,,182.5,142.5,152.5,-162.5,,152.5,197.5,205,215,,215,550,SBD,Raw,1
Scott Arsenault,29,M,M-O,97.3,100,142.5,150,167.5,,167.5,105,-110,112.5,,112.5,205,215,227.5,,227.5,507.5,SBD,Raw,2
Jon Anctil,32,M,M-O,94.1,100,137.5,147.5,157.5,,157.5,102.5,107.5,112.5,,112.5,182.5,192.5,200,,200,470,SBD,Raw,3
Grant Hannah,45,M,M-45,95.1,100,167.5,185,-195,,185,85,-95,95,,95,195,220,230,,230,510,SBD,Raw,1
Luke Kavanagh,31,M,M-O,108.1,110,-140,145,150,,150,87.5,-92.5,-97.5,,87.5,162.5,172.5,182.5,,182.5,420,SBD,Raw,1
Matthew Lucas,41,M,M-40,109.2,110,180,-192.5,195,,195,107.5,115,120,,120,230,242.5,250,,250,565,SBD,Raw,1
Morgan Ward,25,M,M-O,124.8,125,185,190,197.5,,197.5,-110,117.5,125,,125,-200,210,222.5,,222.5,545,SBD,Raw,1
Nick Johnson,20,M,M-J,132.2,140,152.5,167.5,182.5,,182.5,110,122.5,-130,,122.5,185,202.5,220,,220,525,SBD,Raw,1
