Name,Place,Division,Sex,Equipment,State,WeightClassKg,BodyweightKg,Age,Best3SquatKg,Squat4Kg,Best3BenchKg,Best3DeadliftKg,Deadlift4Kg,TotalKg,Event
Danielle Durante,1,Open,F,Raw,CA,56,55.52,30,105.00,,57.50,115.00,,277.50,SBD
Renee Watts,1,Open,F,Raw,OR,67.5,60.28,44,102.50,,62.50,122.50,,287.50,SBD
Renee Watts,1,Master 40-44,F,Raw,OR,67.5,60.28,44,102.50,,62.50,122.50,,287.50,SBD
Nicholas Smith,DQ,Junior 16-17,M,Raw,OR,75,71.49,17,-142.50,,92.50,162.50,,,SBD
Eric Radcliffe,1,Junior 18-19,M,Raw,OR,90,85.37,18,182.50,,102.50,182.50,,467.50,SBD
Sean McGillivray,1,Open,M,Raw,OR,75,73.94,29,142.50,,100.00,205.00,,447.50,SBD
Greg Larson,1,Open,M,Raw,CA,90,89.90,27,220.00,,132.50,255.00,,607.50,SBD
Jeffrey Huet,1,Open,M,Raw,OR,100,94.71,34,220.00,,147.50,260.00,,627.50,SBD
Becky Price,1,Master 45-49,F,Wraps,OR,60,59.69,49,122.50,,82.50,147.50,,352.50,SBD
Joseph McMahan,1,Master 50-54,M,Wraps,CA,75,68.86,53,112.50,,115.00,125.00,,352.50,SBD
Matt Gaechter,1,Open,M,Wraps,OR,90,89.45,35,272.50,,170.00,282.50,,725.00,SBD
Matt Gaechter,1,Submaster 35-39,M,Wraps,OR,90,89.45,35,272.50,,170.00,282.50,,725.00,SBD
Tyler Carpenter,1,Junior 18-19,M,Wraps,OR,100,90.36,19,197.50,,115.00,230.00,,542.50,SBD
Kirk Sabalka,1,Junior 20-23,M,Wraps,OR,100,99.16,22,250.00,,165.00,275.00,,690.00,SBD
Nick Heppner,1,Open,M,Wraps,OR,125,124.01,28,332.50,,212.50,362.50,,907.50,SBD
Travis Osborne,1,Submaster 35-39,M,Wraps,OR,125,115.76,35,265.00,275,205.00,275.00,285,745.00,SBD
Stetson Kinnison,1,Junior 16-17,M,Single-ply,OR,110,107.14,17,200.00,,142.50,205.00,,547.50,SBD
Ron Hiebert,1,Open,M,Single-ply,WA,110,106.78,45,265.00,,120.00,225.00,,610.00,SBD
Delbert Shay,2,Open,M,Single-ply,OR,110,108.05,51,227.50,,152.50,207.50,,587.50,SBD
Ron Hiebert,1,Master 45-49,M,Single-ply,WA,110,106.78,45,265.00,,120.00,225.00,,610.00,SBD
Delbert Shay,1,Master 50-54,M,Single-ply,OR,110,108.05,51,227.50,,152.50,207.50,,587.50,SBD
Sharron Quackenbush,1,Master 65-69,F,Raw,OR,67.5,67.04,66,,,32.50,,,32.50,B
Nicholas Smith,1,Junior 16-17,M,Raw,OR,75,71.49,17,,,92.50,,,92.50,B
Robert Heriford,1,Open,M,Raw,OR,90,85.55,68,,,115.00,,,115.00,B
Robert Heriford,1,Master 65-69,M,Raw,OR,90,85.55,68,,,115.00,,,115.00,B
Justin Shumway,1,Open,M,Raw,OR,125,110.50,35,,,150.00,,,150.00,B
Nicholas Smith,1,Junior 16-17,M,Raw,OR,75,71.49,17,,,,162.50,,162.50,D
Zack Heppner,1,Junior 20-23,M,Raw,OR,100,99.52,23,,,,280.00,,280.00,D
