Name,Place,Division,Sex,Equipment,WeightClassKg,BodyweightKg,Age,Best3SquatKg,Squat4Kg,Best3BenchKg,Best3DeadliftKg,Deadlift4Kg,TotalKg,Event
Dorotea Reyna,1,Master 55-59,F,Raw,67.5,60.78,55,50,,37.5,107.5,,195,SBD
Mary Case,1,Master 55-59,F,Raw,75,73.53,58,77.5,85,90,97.5,,265,SBD
Kevin Xiong,1,Junior 16-17,M,Raw,52,50.80,16,92.5,,72.5,122.5,,287.5,SBD
Antonio Wright,1,Junior 13-15,M,Raw,60,59.42,15,122.5,,80,25,,227.5,SBD
Kong Moua,1,Junior 16-17,M,Raw,60,59.19,17,142.5,,107.5,147.5,150,397.5,SBD
Yer Mona,2,Junior 16-17,M,Raw,60,58.06,17,112.5,,85,135,,332.5,SBD
Jesse Rosales,1,Junior 18-19,M,Raw,67.5,66.90,18,117.5,,105,160,,382.5,SBD
Erik Zepeda,2,Junior 18-19,M,Raw,67.5,63.28,18,107.5,,90,140,,337.5,SBD
Jesse Aguirre,1,Junior 20-23,M,Raw,67.5,66.18,20,122.5,,87.5,182.5,,392.5,SBD
Delvon Manning,1,Junior 16-17,M,Raw,90,89.81,17,120,,107.5,157.5,162.5,385,SBD
Greg Sinigaglia,DQ,Open,M,Raw,90,84.14,33,170,,-172.5,210,,,SBD
Cameron O'Neil,1,Junior 13-15,M,Raw,100,93.67,15,110,,62.5,150,,322.5,SBD
Robert Loyd,DQ,Junior 20-23,M,Raw,100,96.62,22,-160,,102.5,217.5,,,SBD
Lee Sharpe,1,Open,M,Raw,100,96.98,40,237.5,,172.5,257.5,,667.5,SBD
Lee Sharpe,1,Master 40-44,M,Raw,100,96.98,40,237.5,,172.5,257.5,,667.5,SBD
Greg Santacruz,1,Junior 20-23,M,Raw,110,105.96,23,177.5,,177.5,207.5,,562.5,SBD
Greg Cotterell,1,Master 50-54,M,Raw,110,106.96,52,182.5,,150,252.5,,585,SBD
Austin DeLaRosa,1,Junior 16-17,M,Raw,125,124.74,16,87.5,,82.5,155,,325,SBD
John Campos,1,Junior 20-23,M,Raw,125,122.97,22,197.5,,155,245,,597.5,SBD
Julian McElroy,1,Junior 16-17,M,Raw,140,130.63,16,135,,120,192.5,,447.5,SBD
Hillary Harper,1,Open,F,Multi-ply,60,59.96,33,175,,97.5,170,,442.5,SBD
Mary-Ann Sutton,2,Open,F,Multi-ply,60,57.29,25,100,,52.5,147.5,,300,SBD
Evangeline Keresey,1,Master 70-74,F,Multi-ply,67.5,62.82,71,87.5,,50,137.5,,275,SBD
Lisa Gaad,1,Open,F,Multi-ply,82.5,81.24,29,60,,45,90,,195,SBD
Matthew Daisa,1,Open,M,Multi-ply,82.5,80.47,35,162.5,,242.5,227.5,,632.5,SBD
Josh Puckett,DQ,Junior 18-19,M,Multi-ply,90,89.49,19,-282.5,,197.5,227.5,,,SBD
Ron Tillet,1,Open,M,Multi-ply,90,89.49,34,227.5,,160,205,,592.5,SBD
Matthew Olivares,2,Open,M,Multi-ply,90,88.90,36,175,,65,220,,460,SBD
Josh Puckett,DQ,Open,M,Multi-ply,90,89.49,19,-282.5,,197.5,227.5,,,SBD
David Martinez #6,1,Master 70-74,M,Multi-ply,90,87.54,72,102.5,,105,170,,377.5,SBD
Everett Cutburth,1,Master 60-64,M,Multi-ply,100,96.16,64,145,,112.5,152.5,,410,SBD
Pete Wilson,1,Master 75-79,M,Multi-ply,100,90.49,75,162.5,,105,150,,417.5,SBD
Jeff Miller,1,Open,M,Multi-ply,110,105.91,30,250,,142.5,287.5,,680,SBD
William West,2,Open,M,Multi-ply,110,102.06,27,200,,190,185,,575,SBD
Freddie Lomelin,1,Master 50-54,M,Multi-ply,110,105.46,50,197.5,,140,192.5,,530,SBD
Ken Wheeler,1,Master 55-59,M,Multi-ply,110,108.86,58,365,,45,65,,475,SBD
Neil Fletcher,1,Master 60-64,M,Multi-ply,110,107.95,60,205,,145,212.5,,562.5,SBD
Kregg Rackley,1,Junior 18-19,M,Multi-ply,125,121.65,19,202.5,,150,197.5,,550,SBD
Rupert Prout,1,Junior 20-23,M,Multi-ply,125,110.99,22,240,,172.5,285,,697.5,SBD
Bryant Ayers,1,Open,M,Multi-ply,125,117.93,38,262.5,,205,250,,717.5,SBD
Fredrick Martinez,1,Master 45-49,M,Multi-ply,125,117.93,46,250,,205,305,,760,SBD
Bill McEwen,1,Master 55-59,M,Multi-ply,125,116.98,58,195,,135,182.5,,512.5,SBD
Tony Rodenburg,2,Master 55-59,M,Multi-ply,125,121.56,55,150,,127.5,217.5,,495,SBD
Jonathan Hanley,1,Open,M,Multi-ply,140,128.37,35,287.5,,205,272.5,,765,SBD
Robert Lee,DQ,Open,M,Multi-ply,140,128.96,,320,,-290,,,,SBD
Thad Coleman,DQ,Open,M,Multi-ply,140+,153.00,42,-455,,,,,,SBD
Thad Coleman,DQ,Master 40-44,M,Multi-ply,140+,153.00,42,-455,,,,,,SBD
Guillermo Castaneda Jr,1,Junior 20-23,M,Raw,90,88.00,23,,,177.5,,,177.5,B
Guillermo Castaneda Jr,1,Open,M,Raw,90,88.00,23,,,177.5,,,177.5,B
Greg Sinigaglia,DQ,Open,M,Raw,90,84.14,33,,,-172.5,,,,B
Greg Cotterell,1,Master 50-54,M,Raw,110,106.96,52,,,150,,,150,B
Ron Pagal,1,Master 60-64,M,Raw,110,107.95,66,,,132.5,,,132.5,B
Gary Witcher Jr,1,Open,M,Raw,125,124.47,42,,,192.5,,,192.5,B
Gary Witcher Jr,1,Master 40-44,M,Raw,125,124.47,42,,,192.5,,,192.5,B
Matthew Daisa,1,Open,M,Multi-ply,82.5,80.47,35,,,242.5,,,242.5,B
Matthew Daisa,1,Submaster 35-39,M,Multi-ply,82.5,80.47,35,,,242.5,,,242.5,B
Daniel Hudson,1,Master 60-64,M,Multi-ply,90,89.36,63,,,150,,,150,B
Joe Bernazzani,1,Master 60-64,M,Multi-ply,100,97.52,61,,,180,,,180,B
William West,1,Open,M,Multi-ply,110,102.06,27,,,190,,,190,B
