Name,Sex,Country,WeightClassKg,BodyweightKg,Squat1Kg,Squat2Kg,Squat3Kg,Best3SquatKg,Bench1Kg,Bench2Kg,Bench3Kg,Best3BenchKg,Deadlift1Kg,Deadlift2Kg,Deadlift3Kg,Best3DeadliftKg,TotalKg,Place,Event,Equipment,Division
Jacqueline Caco,F,New Caledonia,52,51.1,70,-80,85,85,35,40,42.5,42.5,120,130,140,140,267.5,1,SBD,Raw,Open
Mary Peto,F,Papua New Guinea,52,50.7,72.5,75,-90,75,40,45,-47.5,45,100,110,117.5,117.5,237.5,2,SBD,Raw,Open
Mozima Hussain,F,Fiji,52,51.7,70,75,77.5,77.5,25,27.5,-32.5,27.5,90,97.5,105,105,210,3,SBD,Raw,Open
Augustine Pothier,F,Tahiti,52,48.4,-70,70,72.5,72.5,32.5,35,37.5,37.5,82.5,-87.5,92.5,92.5,202.5,4,SBD,Raw,Open
Stéphanie Tiemonhou,F,New Caledonia,57,56.7,80,90,100,100,40,45,50,50,120,130,-140,130,280,1,SBD,Raw,Open
Hitolo Kevau,F,Papua New Guinea,57,55,92.5,100,110,110,42.5,45,-50,45,95,102.5,110,110,265,2,SBD,Raw,Open
Sainimere Abariga,F,Fiji,63,57.7,-75,-75,75,75,40,50,-55,50,90,97.5,107.5,107.5,232.5,3,SBD,Raw,Open
Melissa Tikio,F,Papua New Guinea,63,61.2,-120,125,-130,125,72.5,75,-77.5,75,120,125,130,130,330,1,SBD,Raw,Open
Lydie Tiemonhou,F,New Caledonia,63,61.8,80,90,105,105,45,50,-55,50,130,150,-160,150,305,2,SBD,Raw,Open
Suliana Kolitagane,F,Fiji,63,62.6,80,90,-102.5,90,-35,50,-65,50,95,110,127.5,127.5,267.5,3,SBD,Raw,Open
Tatiana Yan,F,Tahiti,63,61,80,85,-90,85,50,-55,55,55,90,97.5,-102.5,97.5,237.5,4,SBD,Raw,Open
Linda Pulsan,F,Papua New Guinea,72,71.1,170,180,-190,180,90,100,-102.5,100,160,170,185,185,465,1,SBD,Raw,Open
Catarina Richmond,F,Tahiti,72,68.2,105,-115,-115,105,50,55,-57.5,55,120,130,145,145,305,2,SBD,Raw,Open
Meteng Wak,F,Papua New Guinea,84,83,160,167.5,-175,167.5,80,82.5,85,85,150,160,165,165,,DQ,SBD,Raw,Open
Elesi Ikanidrodro,F,Fiji,84,83.1,125,135,147.5,147.5,50,65,67.5,67.5,145,157.5,165,165,380,1,SBD,Raw,Open
Fila Fuamatu,F,Samoa,84,80.1,120,130,-140,130,50,-60,-60,50,120,140,-150,140,320,2,SBD,Raw,Open
Ana Garnett,F,Fiji,84,72.4,85,-100,110,110,40,50,-65,50,105,120,122.5,122.5,282.5,3,SBD,Raw,Open
Juanita Cilia Terupe,F,Tahiti,84,82,80,90,92.5,92.5,50,55,57.5,57.5,100,110,125,125,275,4,SBD,Raw,Open
Senimili Turner,F,Fiji,84+,116.8,130,140,150,150,70,85,92.5,92.5,140,155,160,160,402.5,1,SBD,Raw,Open
Helen Pahulu,F,Fiji,84+,100.8,120,130,140,140,50,65,75,75,130,145,150,150,365,2,SBD,Raw,Open
Kalau Andrew,M,Papua New Guinea,59,56.4,140,145,150,150,80,85,90,90,160,170,180,180,420,1,SBD,Raw,Open
Kelly Hendry,M,Papua New Guinea,59,58.3,145,150,-157.5,150,80,-85,85,85,150,155,165,165,400,2,SBD,Raw,Open
Jean Paul Soenarman-Abdallah,M,Tahiti,59,58,-130,-135,-135,,70,75,80,80,135,150,160,160,,DQ,SBD,Raw,Open
Masali Wan,M,Papua New Guinea,66,65.1,160,165,-177.5,165,95,107.5,110,110,160,170,180,180,455,1,SBD,Raw,Open
Karyl Le Van N'gon,M,New Caledonia,66,64,160,-170,-170,160,80,90,95,95,175,180,-190,180,435,2,SBD,Raw,Open
Korio Vu Waqavakaviti,M,Fiji,66,65.1,125,-132.5,132.5,132.5,75,85,-92.5,85,180,192.5,195,195,412.5,3,SBD,Raw,Open
Idau Asigau Michael,M,Papua New Guinea,66,63.5,125,130,-145,130,75,-80,85,85,170,180,190,190,405,4,SBD,Raw,Open
Kenny Naime,M,Papua New Guinea,74,72.5,-190,205,210,210,110,125,132.5,132.5,200,210,-220,210,552.5,1,SBD,Raw,Open
Emosi Baleinuku,M,Fiji,74,74,180,192.5,-200,192.5,-120,122.5,127.5,127.5,190,205,-215,205,525,2,SBD,Raw,Open
Awama Johnson Aemoge,M,Nauru,74,71.8,150,165,180,180,-110,125,-135,125,210,-222.5,-222.5,210,515,3,SBD,Raw,Open
Nakibae Kitiseni,M,Tuvalu,74,73.5,-170,180,-190,180,-125,-125,125,125,210,-225,-225,210,515,4,SBD,Raw,Open
Vincent Afoa,M,Samoa,74,72.5,170,180,-185,180,100,-107.5,107.5,107.5,200,212.5,220,220,507.5,5,SBD,Raw,Open
Brown Bolong,M,Papua New Guinea,74,68.1,-170,175,-185,175,90,100,-105,100,170,190,-200,190,465,6,SBD,Raw,Open
Livingstone Sikoli,M,Papua New Guinea,83,82.3,250,-260,260,260,150,155,-160,155,250,260,272.5,272.5,687.5,1,SBD,Raw,Open
Renack Mau,M,Nauru,83,82,-220,220,-230,220,130,-145,-145,130,220,240,-260,240,590,2,SBD,Raw,Open
Terence Taukave,M,Fiji,83,81.7,175,187.5,192.5,192.5,95,-107.5,115,115,195,217.5,225,225,532.5,3,SBD,Raw,Open
Jules Raphael Maruae,M,Tahiti,83,81.2,-150,160,-170,160,130,140,-145,140,170,180,190,190,490,4,SBD,Raw,Open
Safoa Togia,M,Samoa,83,82.1,-160,160,165,165,110,127.5,-132.5,127.5,180,-195,-195,180,472.5,5,SBD,Raw,Open
Tominico Kaikilekofe,M,Wallis and Futuna,83,80.5,-120,-130,130,130,90,-105,-105,90,140,160,-170,160,380,6,SBD,Raw,Open
Raboe Roland,M,Nauru,93,91,220,235,245,245,150,165,170,170,190,205,215,215,630,1,SBD,Raw,Open
Fredo Lecren,M,New Caledonia,93,90.2,170,190,200,200,100,-110,120,120,230,-250,252.5,252.5,572.5,2,SBD,Raw,Open
Jolame Rasovo,M,Fiji,93,88.5,-180,182.5,187.5,187.5,125,132.5,-137.5,132.5,220,232.5,-250,232.5,552.5,3,SBD,Raw,Open
Yannick Tuifua,M,New Caledonia,93,92,170,-190,-190,170,120,130,-140,130,200,210,220,220,520,4,SBD,Raw,Open
Ofisa Junior Ofisa,M,Samoa,105,103.3,270,280,285,285,170,175,180,180,260,270,275,275,740,1,SBD,Raw,Open
Joash Teabuge,M,Nauru,105,103,240,265,275,275,140,150,160,160,240,260,-270,260,695,2,SBD,Raw,Open
Greg Garoa,M,Nauru,105,103,210,-235,-235,210,160,-170,-170,160,280,-295,-295,280,650,3,SBD,Raw,Open
Thierry Siselo,M,New Caledonia,105,101.9,200,-220,-240,200,150,160,-175,160,230,240,250,250,610,4,SBD,Raw,Open
Yannick Tumata Punuarii,M,Tahiti,105,103.9,170,-185,-190,170,140,155,-165,155,210,235,255,255,580,5,SBD,Raw,Open
Jioje Eric Hanfakaga,M,Fiji,105,100.6,200,210,-230,210,130,145,150,150,190,207.5,212.5,212.5,572.5,6,SBD,Raw,Open
Afaaso Junior Saleupu,M,Samoa,105,103.9,195,-205,205,205,130,140,-145,140,200,210,-230,210,555,7,SBD,Raw,Open
Tavita Lipine,M,Samoa,120,111.1,280,290,300,300,165,-170,-170,165,270,280,300,300,765,1,SBD,Raw,Open
Andy Faremiro,M,Tahiti,120,118.2,-220,-240,240,240,-175,185,-190,185,275,285,287.5,287.5,712.5,2,SBD,Raw,Open
Jesse Jeremiah,M,Nauru,120,119.2,250,-260,260,260,200,-210,-215,200,240,250,-260,250,710,3,SBD,Raw,Open
Gabriel Akua,M,Nauru,120,110.8,250,-260,-260,250,170,190,-200,190,230,245,255,255,695,4,SBD,Raw,Open
Mateo Mailagi,M,Wallis and Futuna,120,118.2,160,170,182.5,182.5,140,-150,-150,140,190,210,-225,210,532.5,5,SBD,Raw,Open
Patelisio Paagalua,M,Wallis and Futuna,120,115,105,115,120,120,130,140,-155,140,180,205,220,220,480,6,SBD,Raw,Open
Soakimi Falevalu,M,New Caledonia,120,117.7,-230,250,270,270,180,190,-200,190,-250,-250,-252.5,,,DQ,SBD,Raw,Open
Oliva Kirisome,M,Samoa,120+,162,285,302.5,305,305,165,175,182.5,182.5,285,300,312.5,312.5,800,1,SBD,Raw,Open
Edwin Tamatoa Tauhiro,M,Tahiti,120+,157.2,240,260,275,275,195,205,-210,205,280,290,297.5,297.5,777.5,2,SBD,Raw,Open
Jezza Uepa,M,Nauru,120+,138.4,255,-275,-290,255,200,220,-227.5,220,265,280,-300,280,755,3,SBD,Raw,Open
Daniel Nemani,M,Niue,120+,138.5,290,300,305,305,140,160,-165,160,260,-280,-292.5,260,725,4,SBD,Raw,Open
Ioane Marae,M,Kiribati,120+,140.9,-220,240,250,250,165,-175,-175,165,190,200,210,210,625,5,SBD,Raw,Open
Aukusitino Hoatau,M,Wallis and Futuna,120+,179.3,-120,120,140,140,-200,210,-230,210,180,-220,230,230,580,6,SBD,Raw,Open
Soane Franco Fotutata,M,Wallis and Futuna,120+,136.5,195,-210,-210,195,110,-115,,110,200,-230,,200,505,7,SBD,Raw,Open
