Place,WeightClassKg,Name,Equipment,Team,BodyweightKg,Squat1Kg,Squat2Kg,Squat3Kg,Best3SquatKg,Bench1Kg,Bench2Kg,Bench3Kg,Best3BenchKg,Deadlift1Kg,Deadlift2Kg,Deadlift3Kg,Best3DeadliftKg,TotalKg,Division,Sex,Event
1,83,Kasper Høiland Andersen,Raw,Ganddal AK,81.15,170,180,190,190.0,115,120,125,125.0,195,207.5,215,215.0,530,Teen 14-18,M,SBD
1,105,Geir Øyvind Thorsen,Raw,Sandnes AK,105.00,250,262.5,272.5,272.5,162.5,170,,170.0,250,262.5,270,270.0,712.5,Open,M,SBD
2,105,Kim Andre Wollum,Raw,Stavanger SK,96.55,190,200,210,210.0,130,140,145,145.0,220,240,,240.0,595,Open,M,SBD
1,83,Ole Andreas Ådnanes,Raw,Sandnes AK,81.90,,,,,120,127.5,132.5,132.5,,,,,132.5,Master 40-49,M,B
