Division,WeightClassKg,Place,Name,Team,BodyweightKg,Best3SquatKg,Best3BenchKg,Best3DeadliftKg,TotalKg,Equipment,Event,Sex
Boys,52,1,Raul Cantu,Tyler,48.99,113.4,54.43,113.4,281.23,Single-ply,SBD,M
Boys,52,2,Chandler Bush,Elysian Fields,48.53,113.4,52.16,113.4,278.96,Single-ply,SBD,M
Boys,52,3,Tajai Richardson,Tyler,46.72,74.84,,108.86,183.7,Single-ply,SD,M
Boys,52,4,Kenny Jones,Marshall,51.26,,54.43,129.27,183.7,Single-ply,BD,M
Boys,56,1,Carter Winegeart,Tyler Lee,55.79,136.08,68.04,138.35,342.46,Single-ply,SBD,M
Boys,56,2,Garland Hill,Marshall,55.7,95.25,61.23,124.74,281.23,Single-ply,SBD,M
Boys,60,1,Chandler Haller,Marshall,57.24,111.13,63.5,142.88,317.51,Single-ply,SBD,M
Boys,60,2,Moises Arrellano,Tyler,59.87,90.72,83.91,115.67,290.3,Single-ply,SBD,M
Boys,67.5,1,Stone Crisp,Elysian Fields,66.68,167.83,104.33,163.29,435.45,Single-ply,SBD,M
Boys,67.5,2,Gustavo Hilario,Tyler Lee,64.68,147.42,88.45,185.97,421.84,Single-ply,SBD,M
Boys,67.5,3,Blake Martin,Longview,67.04,154.22,83.91,179.17,417.3,Single-ply,SBD,M
Boys,67.5,4,Jeb Dickson,Elysian Fields,64.41,165.56,86.18,161.03,412.77,Single-ply,SBD,M
Boys,67.5,5,Desmond Armstrong,Longview,61.69,136.08,90.72,170.1,396.89,Single-ply,SBD,M
Boys,67.5,6,TeVarri Graves,Tyler,66.5,154.22,79.38,161.03,394.63,Single-ply,SBD,M
Boys,67.5,7,Jamichael Turman,Tyler Lee,63.96,136.08,72.57,142.88,351.53,Single-ply,SBD,M
Boys,67.5,8,Darius Williams,Marshall,64.95,129.27,70.31,136.08,335.66,Single-ply,SBD,M
Boys,67.5,9,Trent Ogle,Marshall,61.92,120.2,70.31,142.88,333.39,Single-ply,SBD,M
Boys,67.5,10,Carson Caudle,Elysian Fields,64.41,122.47,,136.08,258.55,Single-ply,SD,M
Boys,67.5,DQ,Evey Crisp,Elysian Fields,66.68,90.72,45.36,108.86,,Single-ply,SBD,M
Boys,75,1,Tyler Wilder,Longview,72.57,174.63,97.52,192.78,464.93,Single-ply,SBD,M
Boys,75,2,Cody Haggerty,Longview,70.76,140.61,97.52,185.97,424.11,Single-ply,SBD,M
Boys,75,3,Micheal Givens Washington,Tyler,70.67,142.88,88.45,181.44,412.77,Single-ply,SBD,M
Boys,75,4,Ellison Brown,Longview,70.31,145.15,86.18,165.56,396.89,Single-ply,SBD,M
Boys,75,6,Treylin Lewis,Marshall,71.67,145.15,77.11,142.88,365.14,Single-ply,SBD,M
Boys,75,7,Jerry Davis,Marshall,72.57,136.08,65.77,154.22,356.07,Single-ply,SBD,M
Boys,82.5,1,Mason Burke,Longview,80.29,190.51,117.93,197.31,505.76,Single-ply,SBD,M
Boys,82.5,2,Cameron Watson,Tyler Lee,75.93,185.97,97.52,201.85,485.34,Single-ply,SBD,M
Boys,82.5,3,Dernell Reid,Tyler Lee,82.1,188.24,97.52,190.51,476.27,Single-ply,SBD,M
Boys,82.5,4,Gavin Steelman,Marshall,78.93,181.44,102.06,183.7,467.2,Single-ply,SBD,M
Boys,82.5,5,David Lucio,Marshall,76.48,142.88,79.38,163.29,385.55,Single-ply,SBD,M
Boys,82.5,5,Justiss Dudley,Elysian Fields,78.47,165.56,102.06,183.7,451.32,Single-ply,SBD,M
Boys,82.5,6,Rod Hawkins,Tyler,80.74,156.49,83.91,154.22,394.63,Single-ply,SBD,M
Boys,90,1,Parker Musselwhite,Tyler Lee,89.81,231.33,106.59,233.6,571.53,Single-ply,SBD,M
Boys,90,2,Jc Blakemore,Longview,88.45,204.12,104.33,258.55,566.99,Single-ply,SBD,M
Boys,90,3,Paul Hutchins,Longview,83.46,183.7,102.06,204.12,489.88,Single-ply,SBD,M
Boys,90,4,Jarrius Lane,Tyler,87.54,170.1,102.06,210.92,483.08,Single-ply,SBD,M
Boys,100,1,Wilfredo Valladares,Tyler,98.88,272.16,142.88,226.8,641.83,Single-ply,SBD,M
Boys,100,2,James Perales,Tyler Lee,96.16,206.38,129.27,229.06,564.72,Single-ply,SBD,M
Boys,100,3,Daiston Keeton,Tyler,93.44,231.33,124.74,206.38,562.45,Single-ply,SBD,M
Boys,100,4,Nathan Niederuer,Tyler Lee,98.43,199.58,113.4,181.44,494.42,Single-ply,SBD,M
Boys,100,5,Tyrell Jones,Tyler,96.62,174.63,124.74,183.7,483.08,Single-ply,SBD,M
Boys,100,6,Christian Hartsfield,Tyler,97.34,174.63,102.06,183.7,460.4,Single-ply,SBD,M
Boys,110,1,Josh Moon,Longview,102.06,240.4,124.74,226.8,591.94,Single-ply,SBD,M
Boys,110,2,David Antunez,Tyler Lee,103.42,208.65,115.67,208.65,532.97,Single-ply,SBD,M
Boys,110,3,Ben Nguyen,Longview,101.6,201.85,102.06,199.58,503.49,Single-ply,SBD,M
Boys,110,4,Samuel Meneses,Tyler,108.86,226.8,,206.38,433.18,Single-ply,SD,M
Boys,110,5,Ruben Alfardo,Tyler,107.05,142.88,79.38,183.7,405.97,Single-ply,SBD,M
Boys,110,6,Ryan Black,Marshall,101.15,111.13,86.18,158.76,356.07,Single-ply,SBD,M
Boys,125,1,TreJon Blake,Tyler,113.4,242.67,120.2,235.87,598.74,Single-ply,SBD,M
Boys,125,2,Kaylon Douglas,Tyler,118.84,229.06,127.01,210.92,566.99,Single-ply,SBD,M
Boys,125,3,Jacob Roland,Tyler Lee,112.04,217.72,95.25,217.72,530.7,Single-ply,SBD,M
Boys,125,4,Adrian Jenkins,Marshall,113.4,192.78,127.01,206.38,526.17,Single-ply,SBD,M
Boys,125,5,Ja'Bralen Yarber,Tyler,121.56,188.24,120.2,204.12,512.56,Single-ply,SBD,M
Boys,125,6,Bryce Halloway,Tyler,119.29,165.56,111.13,188.24,464.93,Single-ply,SBD,M
Boys,125,7,Angel Sarmiento,Tyler,110.22,147.42,92.99,156.49,396.89,Single-ply,SBD,M
Boys,125+,1,Ahmad Farrier,Longview,162.84,274.42,124.74,254.01,653.17,Single-ply,SBD,M
Boys,125+,2,Mike Mathis,Elysian Fields,158.76,208.65,97.52,181.44,487.61,Single-ply,SBD,M
Boys,125+,3,Chance Billington,Tyler,129.09,170.1,102.06,183.7,455.86,Single-ply,SBD,M
Boys,125+,4,Sam Minehart,Tyler Lee,129.73,170.1,95.25,172.37,437.72,Single-ply,SBD,M
Boys,125+,5,Braylon Johnson,Tyler,127.01,145.15,,183.7,328.85,Single-ply,SD,M
